dump.vcd
$date
	Thu Jan 29 10:39:40 2026
$end
$version
	Icarus Verilog
$end
$timescale
	1ps
$end
$scope module tb $end
$var wire 8 ! data_8bit_out [7:0] $end
$var wire 1 " bus_free_flag $end
$var reg 1 # clk $end
$var reg 8 $ data_8bit_in [7:0] $end
$var reg 1 % data_en $end
$var reg 1 & rst_n $end
$var integer 32 ' i [31:0] $end
$scope module DUT $end
$var wire 1 # clk $end
$var wire 8 ( data_8bit_in [7:0] $end
$var wire 1 % data_en $end
$var wire 1 & rst_n $end
$var wire 1 ) sipo_en $end
$var wire 1 * ser_out $end
$var wire 1 + ser_en $end
$var wire 10 , par_out [9:0] $end
$var wire 1 - par_en $end
$var wire 1 . load_en $end
$var wire 8 / data_8bit_out [7:0] $end
$var wire 8 0 data_8b_out [7:0] $end
$var wire 10 1 data_10b_out [9:0] $end
$var wire 1 " bus_free_flag $end
$scope module controller_unit $end
$var wire 1 # clk $end
$var wire 1 % data_en $end
$var wire 1 & rst_n $end
$var wire 1 ) sipo_en $end
$var wire 1 + ser_en $end
$var wire 1 - par_en $end
$var wire 1 . load_en $end
$var wire 1 " bus_free_flag $end
$var reg 4 2 counter [3:0] $end
$var reg 4 3 counter_next [3:0] $end
$var reg 3 4 q [2:0] $end
$var reg 3 5 q_next [2:0] $end
$upscope $end
$scope module deserializer_u1 $end
$var wire 1 # clk $end
$var wire 1 ) load_en $end
$var wire 1 & rst_n $end
$var wire 1 * ser_in $end
$var reg 10 6 par_out [9:0] $end
$var reg 10 7 shift_reg [9:0] $end
$upscope $end
$scope module deserializer_u2 $end
$var wire 1 # clk $end
$var wire 10 8 data_10b_in [9:0] $end
$var wire 1 - par_en $end
$var wire 1 & rst_n $end
$var reg 8 9 data_8b_out [7:0] $end
$var reg 3 : temp_3b [2:0] $end
$var reg 5 ; temp_5b [4:0] $end
$upscope $end
$scope module serializer_u1 $end
$var wire 8 < data_8b_in [7:0] $end
$var wire 1 % data_en $end
$var wire 1 & rst_n $end
$var reg 8 = bus_net0 [7:0] $end
$var reg 8 > data_8b_out [7:0] $end
$upscope $end
$scope module serializer_u2 $end
$var wire 1 # clk $end
$var wire 8 ? data_8b_in [7:0] $end
$var wire 1 & rst_n $end
$var wire 1 + ser_en $end
$var reg 10 @ data_10b_out [9:0] $end
$var reg 4 A temp_4b [3:0] $end
$var reg 6 B temp_6b [5:0] $end
$upscope $end
$scope module serializer_u3 $end
$var wire 1 # clk $end
$var wire 1 . load_en $end
$var wire 10 C par_in [9:0] $end
$var wire 1 & rst_n $end
$var reg 1 * ser_out $end
$var reg 10 D shift_reg [9:0] $end
$upscope $end
$upscope $end
$upscope $end
$enddefinitions $end
$comment Show the parameter values. $end
$dumpall
$end
#0
$dumpvars
bx D
bx C
bx B
bx A
bx @
bx ?
bx >
bx =
b0 <
bx ;
bx :
bx 9
bx 8
bx 7
bx 6
b0 5
bx 4
b1010 3
bx 2
bx 1
bx 0
bx /
x.
x-
bx ,
x+
x*
x)
b0 (
bx '
1&
0%
b0 $
0#
x"
bx !
$end
#5000
b0 B
b0 A
b0 D
b0 ,
b0 6
b0 8
b0 ;
b0 :
1"
0+
0.
0)
0-
b0 4
b1010 2
b0 =
b0 0
b0 >
b0 ?
0&
1#
#10000
b0 '
1&
0#
#15000
b1 5
b100100 0
b100100 >
b100100 ?
b0 !
b0 /
b0 9
bx ,
bx 6
bx 8
0*
b0 1
b0 @
b0 C
b100100 $
b100100 (
b100100 <
1%
1#
#20000
0#
#25000
b100100 =
b10 5
0%
0"
1+
b1 4
1#
#30000
0#
#35000
b1001 3
0+
1.
b10 4
b110101 B
b1001 A
b0 $
b0 (
b0 <
b1 '
1#
#40000
0#
#45000
b1000 3
b1001110101 1
b1001110101 @
b1001110101 C
b1001 2
1#
#50000
0#
#55000
b111 3
b1000 2
b1001110101 D
1#
#60000
0#
#65000
b110 3
b111 2
1#
#70000
0#
#75000
b101 3
b110 2
1#
#80000
0#
#85000
b100 3
b101 2
1#
#90000
0#
#95000
b11 3
b100 2
1#
#100000
0#
#105000
b10 3
b11 2
1#
#110000
0#
#115000
b1 3
b10 2
1#
#120000
0#
#125000
b0 3
b1 2
1#
#130000
0#
#135000
b1010 3
b11 5
b0 2
1#
#140000
0#
#145000
b1001 3
0.
1)
b11 4
b1010 2
1#
#150000
0#
#155000
b1000 3
b1001 2
b0xxxxxxxxx 7
b100111010 D
1*
1#
#160000
0#
#165000
b111 3
b10011101 D
0*
b10xxxxxxxx 7
b1000 2
1#
#170000
0#
#175000
b110 3
b111 2
b10xxxxxxx 7
b1001110 D
1*
1#
#180000
0#
#185000
b101 3
b100111 D
0*
b1010xxxxxx 7
b110 2
1#
#190000
0#
#195000
b100 3
b101 2
b1010xxxxx 7
b10011 D
1*
1#
#200000
0#
#205000
b11 3
b1001 D
b101010xxxx 7
b100 2
1#
#210000
0#
#215000
b10 3
b11 2
b1101010xxx 7
b100 D
1#
#220000
0#
#225000
b1 3
b10 D
0*
b11101010xx 7
b10 2
1#
#230000
0#
#235000
b0 3
b1 2
b11101010x 7
b1 D
1#
#240000
0#
#245000
b1010 3
b100 5
b0 D
1*
b11101010 7
b0 2
1#
#250000
0#
#255000
b101 5
b1010 2
0)
b100 4
b1001110101 7
0*
1#
#260000
0#
#265000
b0 5
b1001110101 ,
b1001110101 6
b1001110101 8
1-
b101 4
1#
#270000
0#
#275000
1"
0-
b0 4
b100 ;
b1 :
1#
#280000
0#
#285000
b1 5
b0 =
b10000001 0
b10000001 >
b10000001 ?
b10000001 $
b10000001 (
b10000001 <
1%
b100100 !
b100100 /
b100100 9
1#
#290000
0#
#295000
b10 5
b10000001 =
0"
1+
b1 4
0%
1#
#300000
0#
#305000
b1001 3
b0 $
b0 (
b0 <
b11101 B
b10 A
0+
1.
b10 4
b10 '
1#
#310000
0#
#315000
b1000 3
b1001 2
b1001110101 D
b10011101 1
b10011101 @
b10011101 C
1#
#320000
0#
#325000
b111 3
b10011101 D
b1000 2
1#
#330000
0#
#335000
b110 3
b111 2
1#
#340000
0#
#345000
b101 3
b110 2
1#
#350000
0#
#355000
b100 3
b101 2
1#
#360000
0#
#365000
b11 3
b100 2
1#
#370000
0#
#375000
b10 3
b11 2
1#
#380000
0#
#385000
b1 3
b10 2
1#
#390000
0#
#395000
b0 3
b1 2
1#
#400000
0#
#405000
b1010 3
b11 5
b0 2
1#
#410000
0#
#415000
b1001 3
b1010 2
0.
1)
b11 4
1#
#420000
0#
#425000
b1000 3
b1001110 D
1*
b100111010 7
b1001 2
1#
#430000
0#
#435000
b111 3
b1000 2
b1010011101 7
b100111 D
0*
1#
#440000
0#
#445000
b110 3
b10011 D
1*
b101001110 7
b111 2
1#
#450000
0#
#455000
b101 3
b110 2
b1010100111 7
b1001 D
1#
#460000
0#
#465000
b100 3
b100 D
b1101010011 7
b101 2
1#
#470000
0#
#475000
b11 3
b100 2
b1110101001 7
b10 D
0*
1#
#480000
0#
#485000
b10 3
b1 D
b111010100 7
b11 2
1#
#490000
0#
#495000
b1 3
b10 2
b11101010 7
b0 D
1*
1#
#500000
0#
#505000
b0 3
0*
b1001110101 7
b1 2
1#
#510000
0#
#515000
b1010 3
b100 5
b0 2
b100111010 7
1#
#520000
0#
#525000
b101 5
b10011101 7
0)
b100 4
b1010 2
1#
#530000
0#
#535000
b0 5
1-
b101 4
b10011101 ,
b10011101 6
b10011101 8
1#
#540000
0#
#545000
b1 ;
b100 :
1"
0-
b0 4
1#
#550000
0#
#555000
b1 5
b0 =
b1001 0
b1001 >
b1001 ?
b10000001 !
b10000001 /
b10000001 9
b1001 $
b1001 (
b1001 <
1%
1#
#560000
0#
#565000
b1001 =
b10 5
0%
0"
1+
b1 4
1#
#570000
0#
#575000
b1001 3
0+
1.
b10 4
b100101 B
b100 A
b0 $
b0 (
b0 <
b11 '
1#
#580000
0#
#585000
b1000 3
b100100101 1
b100100101 @
b100100101 C
b10011101 D
b1001 2
1#
#590000
0#
#595000
b111 3
b1000 2
b100100101 D
1#
#600000
0#
#605000
b110 3
b111 2
1#
#610000
0#
#615000
b101 3
b110 2
1#
#620000
0#
#625000
b100 3
b101 2
1#
#630000
0#
#635000
b11 3
b100 2
1#
#640000
0#
#645000
b10 3
b11 2
1#
#650000
0#
#655000
b1 3
b10 2
1#
#660000
0#
#665000
b0 3
b1 2
1#
#670000
0#
#675000
b1010 3
b11 5
b0 2
1#
#680000
0#
#685000
b1001 3
0.
1)
b11 4
b1010 2
1#
#690000
0#
#695000
b1000 3
b1001 2
b1001110 7
b10010010 D
1*
1#
#700000
0#
#705000
b111 3
b1001001 D
0*
b1000100111 7
b1000 2
1#
#710000
0#
#715000
b110 3
b111 2
b100010011 7
b100100 D
1*
1#
#720000
0#
#725000
b101 3
b10010 D
0*
b1010001001 7
b110 2
1#
#730000
0#
#735000
b100 3
b101 2
b101000100 7
b1001 D
1#
#740000
0#
#745000
b11 3
b100 D
1*
b10100010 7
b100 2
1#
#750000
0#
#755000
b10 3
b11 2
b1001010001 7
b10 D
0*
1#
#760000
0#
#765000
b1 3
b1 D
b100101000 7
b10 2
1#
#770000
0#
#775000
b0 3
b1 2
b10010100 7
b0 D
1*
1#
#780000
0#
#785000
b1010 3
b100 5
0*
b1001001010 7
b0 2
1#
#790000
0#
#795000
b101 5
b1010 2
0)
b100 4
b100100101 7
1#
#800000
0#
#805000
b0 5
b100100101 ,
b100100101 6
b100100101 8
1-
b101 4
1#
#810000
0#
#815000
1"
0-
b0 4
b1001 ;
b0 :
1#
#820000
0#
#825000
b1 5
b0 =
b1100011 0
b1100011 >
b1100011 ?
b1100011 $
b1100011 (
b1100011 <
1%
b1001 !
b1001 /
b1001 9
1#
#830000
0#
#835000
b10 5
b1100011 =
0"
1+
b1 4
0%
1#
#840000
0#
#845000
b1001 3
b0 $
b0 (
b0 <
b110001 B
b11 A
0+
1.
b10 4
b100 '
1#
#850000
0#
#855000
b1000 3
b1001 2
b100100101 D
b11110001 1
b11110001 @
b11110001 C
1#
#860000
0#
#865000
b111 3
b11110001 D
b1000 2
1#
#870000
0#
#875000
b110 3
b111 2
1#
#880000
0#
#885000
b101 3
b110 2
1#
#890000
0#
#895000
b100 3
b101 2
1#
#900000
0#
#905000
b11 3
b100 2
1#
#910000
0#
#915000
b10 3
b11 2
1#
#920000
0#
#925000
b1 3
b10 2
1#
#930000
0#
#935000
b0 3
b1 2
1#
#940000
0#
#945000
b1010 3
b11 5
b0 2
1#
#950000
0#
#955000
b1001 3
b1010 2
0.
1)
b11 4
1#
#960000
0#
#965000
b1000 3
b1111000 D
1*
b10010010 7
b1001 2
1#
#970000
0#
#975000
b111 3
b1000 2
b1001001001 7
b111100 D
0*
1#
#980000
0#
#985000
b110 3
b11110 D
b100100100 7
b111 2
1#
#990000
0#
#995000
b101 3
b110 2
b10010010 7
b1111 D
1#
#1000000
0#
#1005000
b100 3
b111 D
1*
b1001001 7
b101 2
1#
#1010000
0#
#1015000
b11 3
b100 2
b1000100100 7
b11 D
1#
#1020000
0#
#1025000
b10 3
b1 D
b1100010010 7
b11 2
1#
#1030000
0#
#1035000
b1 3
b10 2
b1110001001 7
b0 D
1#
#1040000
0#
#1045000
b0 3
0*
b1111000100 7
b1 2
1#
#1050000
0#
#1055000
b1010 3
b100 5
b0 2
b111100010 7
1#
#1060000
0#
#1065000
b101 5
b11110001 7
0)
b100 4
b1010 2
1#
#1070000
0#
#1075000
b0 5
1-
b101 4
b11110001 ,
b11110001 6
b11110001 8
1#
#1080000
0#
#1085000
b11 ;
b11 :
1"
0-
b0 4
1#
#1090000
0#
#1095000
b1 5
b0 =
b1101 0
b1101 >
b1101 ?
b1100011 !
b1100011 /
b1100011 9
b1101 $
b1101 (
b1101 <
1%
1#
#1100000
0#
#1105000
b1101 =
b10 5
0%
0"
1+
b1 4
1#
#1110000
0#
#1115000
b1001 3
0+
1.
b10 4
b101100 B
b100 A
b0 $
b0 (
b0 <
b101 '
1#
#1120000
0#
#1125000
b1000 3
b100101100 1
b100101100 @
b100101100 C
b11110001 D
b1001 2
1#
#1130000
0#
#1135000
b111 3
b1000 2
b100101100 D
1#
#1140000
0#
#1145000
b110 3
b111 2
1#
#1150000
0#
#1155000
b101 3
b110 2
1#
#1160000
0#
#1165000
b100 3
b101 2
1#
#1170000
0#
#1175000
b11 3
b100 2
1#
#1180000
0#
#1185000
b10 3
b11 2
1#
#1190000
0#
#1195000
b1 3
b10 2
1#
#1200000
0#
#1205000
b0 3
b1 2
1#
#1210000
0#
#1215000
b1010 3
b11 5
b0 2
1#
#1220000
0#
#1225000
b1001 3
0.
1)
b11 4
b1010 2
1#
#1230000
0#
#1235000
b1000 3
b1001 2
b1111000 7
b10010110 D
1#
#1240000
0#
#1245000
b111 3
b1001011 D
b111100 7
b1000 2
1#
#1250000
0#
#1255000
b110 3
b111 2
b11110 7
b100101 D
1*
1#
#1260000
0#
#1265000
b101 3
b10010 D
b1000001111 7
b110 2
1#
#1270000
0#
#1275000
b100 3
b101 2
b1100000111 7
b1001 D
0*
1#
#1280000
0#
#1285000
b11 3
b100 D
1*
b110000011 7
b100 2
1#
#1290000
0#
#1295000
b10 3
b11 2
b1011000001 7
b10 D
0*
1#
#1300000
0#
#1305000
b1 3
b1 D
b101100000 7
b10 2
1#
#1310000
0#
#1315000
b0 3
b1 2
b10110000 7
b0 D
1*
1#
#1320000
0#
#1325000
b1010 3
b100 5
0*
b1001011000 7
b0 2
1#
#1330000
0#
#1335000
b101 5
b1010 2
0)
b100 4
b100101100 7
1#
#1340000
0#
#1345000
b0 5
b100101100 ,
b100101100 6
b100101100 8
1-
b101 4
1#
#1350000
0#
#1355000
1"
0-
b0 4
b1101 ;
b0 :
1#
#1360000
0#
#1365000
b1 5
b0 =
b10001101 0
b10001101 >
b10001101 ?
b10001101 $
b10001101 (
b10001101 <
1%
b1101 !
b1101 /
b1101 9
1#
#1370000
0#
#1375000
b10 5
b10001101 =
0"
1+
b1 4
0%
1#
#1380000
0#
#1385000
b1001 3
b0 $
b0 (
b0 <
b10 A
0+
1.
b10 4
b110 '
1#
#1390000
0#
#1395000
b1000 3
b1001 2
b100101100 D
b10101100 1
b10101100 @
b10101100 C
1#
#1400000
0#
#1405000
b111 3
b10101100 D
b1000 2
1#
#1410000
0#
#1415000
b110 3
b111 2
1#
#1420000
0#
#1425000
b101 3
b110 2
1#
#1430000
0#
#1435000
b100 3
b101 2
1#
#1440000
0#
#1445000
b11 3
b100 2
1#
#1450000
0#
#1455000
b10 3
b11 2
1#
#1460000
0#
#1465000
b1 3
b10 2
1#
#1470000
0#
#1475000
b0 3
b1 2
1#
#1480000
0#
#1485000
b1010 3
b11 5
b0 2
1#
#1490000
0#
#1495000
b1001 3
b1010 2
0.
1)
b11 4
1#
#1500000
0#
#1505000
b1000 3
b1010110 D
b10010110 7
b1001 2
1#
#1510000
0#
#1515000
b111 3
b1000 2
b1001011 7
b101011 D
1#
#1520000
0#
#1525000
b110 3
b10101 D
1*
b100101 7
b111 2
1#
#1530000
0#
#1535000
b101 3
b110 2
b1000010010 7
b1010 D
1#
#1540000
0#
#1545000
b100 3
b101 D
0*
b1100001001 7
b101 2
1#
#1550000
0#
#1555000
b11 3
b100 2
b110000100 7
b10 D
1*
1#
#1560000
0#
#1565000
b10 3
b1 D
0*
b1011000010 7
b11 2
1#
#1570000
0#
#1575000
b1 3
b10 2
b101100001 7
b0 D
1*
1#
#1580000
0#
#1585000
b0 3
0*
b1010110000 7
b1 2
1#
#1590000
0#
#1595000
b1010 3
b100 5
b0 2
b101011000 7
1#
#1600000
0#
#1605000
b101 5
b10101100 7
0)
b100 4
b1010 2
1#
#1610000
0#
#1615000
b0 5
1-
b101 4
b10101100 ,
b10101100 6
b10101100 8
1#
#1620000
0#
#1625000
b100 :
1"
0-
b0 4
1#
#1630000
0#
#1635000
b1 5
b0 =
b1100101 0
b1100101 >
b1100101 ?
b10001101 !
b10001101 /
b10001101 9
b1100101 $
b1100101 (
b1100101 <
1%
1#
#1640000
0#
#1645000
b1100101 =
b10 5
0%
0"
1+
b1 4
1#
#1650000
0#
#1655000
b1001 3
0+
1.
b10 4
b101001 B
b11 A
b0 $
b0 (
b0 <
b111 '
1#
#1660000
0#
#1665000
b1000 3
b11101001 1
b11101001 @
b11101001 C
b10101100 D
b1001 2
1#
#1670000
0#
#1675000
b111 3
b1000 2
b11101001 D
1#
#1680000
0#
#1685000
b110 3
b111 2
1#
#1690000
0#
#1695000
b101 3
b110 2
1#
#1700000
0#
#1705000
b100 3
b101 2
1#
#1710000
0#
#1715000
b11 3
b100 2
1#
#1720000
0#
#1725000
b10 3
b11 2
1#
#1730000
0#
#1735000
b1 3
b10 2
1#
#1740000
0#
#1745000
b0 3
b1 2
1#
#1750000
0#
#1755000
b1010 3
b11 5
b0 2
1#
#1760000
0#
#1765000
b1001 3
0.
1)
b11 4
b1010 2
1#
#1770000
0#
#1775000
b1000 3
b1001 2
b1010110 7
b1110100 D
1*
1#
#1780000
0#
#1785000
b111 3
b111010 D
0*
b1000101011 7
b1000 2
1#
#1790000
0#
#1795000
b110 3
b111 2
b100010101 7
b11101 D
1#
#1800000
0#
#1805000
b101 3
b1110 D
1*
b10001010 7
b110 2
1#
#1810000
0#
#1815000
b100 3
b101 2
b1001000101 7
b111 D
0*
1#
#1820000
0#
#1825000
b11 3
b11 D
1*
b100100010 7
b100 2
1#
#1830000
0#
#1835000
b10 3
b11 2
b1010010001 7
b1 D
1#
#1840000
0#
#1845000
b1 3
b0 D
b1101001000 7
b10 2
1#
#1850000
0#
#1855000
b0 3
b1 2
b1110100100 7
0*
1#
#1860000
0#
#1865000
b1010 3
b100 5
b111010010 7
b0 2
1#
#1870000
0#
#1875000
b101 5
b1010 2
0)
b100 4
b11101001 7
1#
#1880000
0#
#1885000
b0 5
b11101001 ,
b11101001 6
b11101001 8
1-
b101 4
1#
#1890000
0#
#1895000
1"
0-
b0 4
b101 ;
b11 :
1#
#1900000
0#
#1905000
b1 5
b0 =
b10010 0
b10010 >
b10010 ?
b10010 $
b10010 (
b10010 <
1%
b1100101 !
b1100101 /
b1100101 9
1#
#1910000
0#
#1915000
b10 5
b10010 =
0"
1+
b1 4
0%
1#
#1920000
0#
#1925000
b1001 3
b0 $
b0 (
b0 <
b10011 B
b100 A
0+
1.
b10 4
b1000 '
1#
#1930000
0#
#1935000
b1000 3
b1001 2
b11101001 D
b100010011 1
b100010011 @
b100010011 C
1#
#1940000
0#
#1945000
b111 3
b100010011 D
b1000 2
1#
#1950000
0#
#1955000
b110 3
b111 2
1#
#1960000
0#
#1965000
b101 3
b110 2
1#
#1970000
0#
#1975000
b100 3
b101 2
1#
#1980000
0#
#1985000
b11 3
b100 2
1#
#1990000
0#
#1995000
b10 3
b11 2
1#
#2000000
0#
#2005000
b1 3
b10 2
1#
#2010000
0#
#2015000
b0 3
b1 2
1#
#2020000
0#
#2025000
b1010 3
b11 5
b0 2
1#
#2030000
0#
#2035000
b1001 3
b1010 2
0.
1)
b11 4
1#
#2040000
0#
#2045000
b1000 3
b10001001 D
1*
b1110100 7
b1001 2
1#
#2050000
0#
#2055000
b111 3
b1000 2
b1000111010 7
b1000100 D
1#
#2060000
0#
#2065000
b110 3
b100010 D
0*
b1100011101 7
b111 2
1#
#2070000
0#
#2075000
b101 3
b110 2
b110001110 7
b10001 D
1#
#2080000
0#
#2085000
b100 3
b1000 D
1*
b11000111 7
b101 2
1#
#2090000
0#
#2095000
b11 3
b100 2
b1001100011 7
b100 D
0*
1#
#2100000
0#
#2105000
b10 3
b10 D
b100110001 7
b11 2
1#
#2110000
0#
#2115000
b1 3
b10 2
b10011000 7
b1 D
1#
#2120000
0#
#2125000
b0 3
b0 D
1*
b1001100 7
b1 2
1#
#2130000
0#
#2135000
b1010 3
b100 5
b0 2
b1000100110 7
0*
1#
#2140000
0#
#2145000
b101 5
b100010011 7
0)
b100 4
b1010 2
1#
#2150000
0#
#2155000
b0 5
1-
b101 4
b100010011 ,
b100010011 6
b100010011 8
1#
#2160000
0#
#2165000
b10010 ;
b0 :
1"
0-
b0 4
1#
#2170000
0#
#2175000
b1 5
b0 =
b1 0
b1 >
b1 ?
b10010 !
b10010 /
b10010 9
b1 $
b1 (
b1 <
1%
1#
#2180000
0#
#2185000
b1 =
b10 5
0%
0"
1+
b1 4
1#
#2190000
0#
#2195000
b1001 3
0+
1.
b10 4
b11101 B
b0 $
b0 (
b0 <
b1001 '
1#
#2200000
0#
#2205000
b1000 3
b100011101 1
b100011101 @
b100011101 C
b100010011 D
b1001 2
1#
#2210000
0#
#2215000
b111 3
b1000 2
b100011101 D
1#
#2220000
0#
#2225000
b110 3
b111 2
1#
#2230000
0#
#2235000
b101 3
b110 2
1#
#2240000
0#
#2245000
b100 3
b101 2
1#
#2250000
0#
#2255000
b11 3
b100 2
1#
#2260000
0#
#2265000
b10 3
b11 2
1#
#2270000
0#
#2275000
b1 3
b10 2
1#
#2280000
0#
#2285000
b0 3
b1 2
1#
#2290000
0#
#2295000
b1010 3
b11 5
b0 2
1#
#2300000
0#
#2305000
b1001 3
0.
1)
b11 4
b1010 2
1#
#2310000
0#
#2315000
b1000 3
b1001 2
b10001001 7
b10001110 D
1*
1#
#2320000
0#
#2325000
b111 3
b1000111 D
0*
b1001000100 7
b1000 2
1#
#2330000
0#
#2335000
b110 3
b111 2
b100100010 7
b100011 D
1*
1#
#2340000
0#
#2345000
b101 3
b10001 D
b1010010001 7
b110 2
1#
#2350000
0#
#2355000
b100 3
b101 2
b1101001000 7
b1000 D
1#
#2360000
0#
#2365000
b11 3
b100 D
0*
b1110100100 7
b100 2
1#
#2370000
0#
#2375000
b10 3
b11 2
b111010010 7
b10 D
1#
#2380000
0#
#2385000
b1 3
b1 D
b11101001 7
b10 2
1#
#2390000
0#
#2395000
b0 3
b1 2
b1110100 7
b0 D
1*
1#
#2400000
0#
#2405000
b1010 3
b100 5
0*
b1000111010 7
b0 2
1#
#2410000
0#
#2415000
b101 5
b1010 2
0)
b100 4
b100011101 7
1#
#2420000
0#
#2425000
b0 5
b100011101 ,
b100011101 6
b100011101 8
1-
b101 4
1#
#2430000
0#
#2435000
1"
0-
b0 4
b1 ;
1#
#2440000
0#
#2445000
b1 5
b0 =
b1101 0
b1101 >
b1101 ?
b1101 $
b1101 (
b1101 <
1%
b1 !
b1 /
b1 9
1#
#2450000
0#
#2455000
b10 5
b1101 =
0"
1+
b1 4
0%
1#
#2460000
0#
#2465000
b1001 3
b0 $
b0 (
b0 <
b101100 B
0+
1.
b10 4
b1010 '
1#
#2470000
0#
#2475000
b1000 3
b1001 2
b100011101 D
b100101100 1
b100101100 @
b100101100 C
1#
#2480000
0#
#2485000
b111 3
b100101100 D
b1000 2
1#
#2490000
0#
#2495000
b110 3
b111 2
1#
#2500000
0#
#2505000
b101 3
b110 2
1#
#2510000
0#
#2515000
b100 3
b101 2
1#
#2520000
0#
#2525000
b11 3
b100 2
1#
#2530000
0#
#2535000
b10 3
b11 2
1#
#2540000
0#
#2545000
b1 3
b10 2
1#
#2550000
0#
#2555000
b0 3
b1 2
1#
#2560000
0#
#2565000
b1010 3
b11 5
b0 2
1#
#2570000
0#
#2575000
b1001 3
b1010 2
0.
1)
b11 4
1#
#2580000
0#
#2585000
b1000 3
b10010110 D
b10001110 7
b1001 2
1#
#2590000
0#
#2595000
b111 3
b1000 2
b1000111 7
b1001011 D
1#
#2600000
0#
#2605000
b110 3
b100101 D
1*
b100011 7
b111 2
1#
#2610000
0#
#2615000
b101 3
b110 2
b1000010001 7
b10010 D
1#
#2620000
0#
#2625000
b100 3
b1001 D
0*
b1100001000 7
b101 2
1#
#2630000
0#
#2635000
b11 3
b100 2
b110000100 7
b100 D
1*
1#
#2640000
0#
#2645000
b10 3
b10 D
0*
b1011000010 7
b11 2
1#
#2650000
0#
#2655000
b1 3
b10 2
b101100001 7
b1 D
1#
#2660000
0#
#2665000
b0 3
b0 D
1*
b10110000 7
b1 2
1#
#2670000
0#
#2675000
b1010 3
b100 5
b0 2
b1001011000 7
0*
1#
#2680000
0#
#2685000
b101 5
b100101100 7
0)
b100 4
b1010 2
1#
#2690000
0#
#2695000
b0 5
1-
b101 4
b100101100 ,
b100101100 6
b100101100 8
1#
#2700000
0#
#2705000
b1101 ;
1"
0-
b0 4
1#
#2710000
0#
#2715000
b1 5
b0 =
b1110110 0
b1110110 >
b1110110 ?
b1101 !
b1101 /
b1101 9
b1110110 $
b1110110 (
b1110110 <
1%
1#
#2720000
0#
#2725000
b1110110 =
b10 5
0%
0"
1+
b1 4
1#
#2730000
0#
#2735000
b1001 3
0+
1.
b10 4
b11010 B
b11 A
b0 $
b0 (
b0 <
b1011 '
1#
#2740000
0#
#2745000
b1000 3
b11011010 1
b11011010 @
b11011010 C
b100101100 D
b1001 2
1#
#2750000
0#
#2755000
b111 3
b1000 2
b11011010 D
1#
#2760000
0#
#2765000
b110 3
b111 2
1#
#2770000
0#
#2775000
b101 3
b110 2
1#
#2780000
0#
#2785000
b100 3
b101 2
1#
#2790000
0#
#2795000
b11 3
b100 2
1#
#2800000
0#
#2805000
b10 3
b11 2
1#
#2810000
0#
#2815000
b1 3
b10 2
1#
#2820000
0#
#2825000
b0 3
b1 2
1#
#2830000
0#
#2835000
b1010 3
b11 5
b0 2
1#
#2840000
0#
#2845000
b1001 3
0.
1)
b11 4
b1010 2
1#
#2850000
0#
#2855000
b1000 3
b1001 2
b10010110 7
b1101101 D
1#
#2860000
0#
#2865000
b111 3
b110110 D
1*
b1001011 7
b1000 2
1#
#2870000
0#
#2875000
b110 3
b111 2
b1000100101 7
b11011 D
0*
1#
#2880000
0#
#2885000
b101 3
b1101 D
1*
b100010010 7
b110 2
1#
#2890000
0#
#2895000
b100 3
b101 2
b1010001001 7
b110 D
1#
#2900000
0#
#2905000
b11 3
b11 D
0*
b1101000100 7
b100 2
1#
#2910000
0#
#2915000
b10 3
b11 2
b110100010 7
b1 D
1*
1#
#2920000
0#
#2925000
b1 3
b0 D
b1011010001 7
b10 2
1#
#2930000
0#
#2935000
b0 3
b1 2
b1101101000 7
0*
1#
#2940000
0#
#2945000
b1010 3
b100 5
b110110100 7
b0 2
1#
#2950000
0#
#2955000
b101 5
b1010 2
0)
b100 4
b11011010 7
1#
#2960000
0#
#2965000
b0 5
b11011010 ,
b11011010 6
b11011010 8
1-
b101 4
1#
#2970000
0#
#2975000
1"
0-
b0 4
b10110 ;
b11 :
1#
#2980000
0#
#2985000
b1 5
b0 =
b111101 0
b111101 >
b111101 ?
b111101 $
b111101 (
b111101 <
1%
b1110110 !
b1110110 /
b1110110 9
1#
#2990000
0#
#2995000
b10 5
b111101 =
0"
1+
b1 4
0%
1#
#3000000
0#
#3005000
b1001 3
b0 $
b0 (
b0 <
b101110 B
b1001 A
0+
1.
b10 4
b1100 '
1#
#3010000
0#
#3015000
b1000 3
b1001 2
b11011010 D
b1001101110 1
b1001101110 @
b1001101110 C
1#
#3020000
0#
#3025000
b111 3
b1001101110 D
b1000 2
1#
#3030000
0#
#3035000
b110 3
b111 2
1#
#3040000
0#
#3045000
b101 3
b110 2
1#
#3050000
0#
#3055000
b100 3
b101 2
1#
#3060000
0#
#3065000
b11 3
b100 2
1#
#3070000
0#
#3075000
b10 3
b11 2
1#
#3080000
0#
#3085000
b1 3
b10 2
1#
#3090000
0#
#3095000
b0 3
b1 2
1#
#3100000
0#
#3105000
b1010 3
b11 5
b0 2
1#
#3110000
0#
#3115000
b1001 3
b1010 2
0.
1)
b11 4
1#
#3120000
0#
#3125000
b1000 3
b100110111 D
b1101101 7
b1001 2
1#
#3130000
0#
#3135000
b111 3
b1000 2
b110110 7
b10011011 D
1*
1#
#3140000
0#
#3145000
b110 3
b1001101 D
b1000011011 7
b111 2
1#
#3150000
0#
#3155000
b101 3
b110 2
b1100001101 7
b100110 D
1#
#3160000
0#
#3165000
b100 3
b10011 D
0*
b1110000110 7
b101 2
1#
#3170000
0#
#3175000
b11 3
b100 2
b111000011 7
b1001 D
1*
1#
#3180000
0#
#3185000
b10 3
b100 D
b1011100001 7
b11 2
1#
#3190000
0#
#3195000
b1 3
b10 2
b1101110000 7
b10 D
0*
1#
#3200000
0#
#3205000
b0 3
b1 D
b110111000 7
b1 2
1#
#3210000
0#
#3215000
b1010 3
b100 5
b0 2
b11011100 7
b0 D
1*
1#
#3220000
0#
#3225000
b101 5
0*
b1001101110 7
0)
b100 4
b1010 2
1#
#3230000
0#
#3235000
b0 5
1-
b101 4
b1001101110 ,
b1001101110 6
b1001101110 8
1#
#3240000
0#
#3245000
b11101 ;
b1 :
1"
0-
b0 4
1#
#3250000
0#
#3255000
b1 5
b0 =
b11101101 0
b11101101 >
b11101101 ?
b111101 !
b111101 /
b111101 9
b11101101 $
b11101101 (
b11101101 <
1%
1#
#3260000
0#
#3265000
b11101101 =
b10 5
0%
0"
1+
b1 4
1#
#3270000
0#
#3275000
b1001 3
0+
1.
b10 4
b101100 B
b1 A
b0 $
b0 (
b0 <
b1101 '
1#
#3280000
0#
#3285000
b1000 3
b1101100 1
b1101100 @
b1101100 C
b1001101110 D
b1001 2
1#
#3290000
0#
#3295000
b111 3
b1000 2
b1101100 D
1#
#3300000
0#
#3305000
b110 3
b111 2
1#
#3310000
0#
#3315000
b101 3
b110 2
1#
#3320000
0#
#3325000
b100 3
b101 2
1#
#3330000
0#
#3335000
b11 3
b100 2
1#
#3340000
0#
#3345000
b10 3
b11 2
1#
#3350000
0#
#3355000
b1 3
b10 2
1#
#3360000
0#
#3365000
b0 3
b1 2
1#
#3370000
0#
#3375000
b1010 3
b11 5
b0 2
1#
#3380000
0#
#3385000
b1001 3
0.
1)
b11 4
b1010 2
1#
#3390000
0#
